Machine Learning
…
    Examine the crossed structure of the data

        > Penicillin %>% group_by(sample) %>% count
# A tibble: 6 x 2
# Groups:   sample [6]
  sample     n
    
1 A         24
2 B         24
3 C         24
4 D         24
5 E         24
6 F         24
> Penicillin %>% group_by(plate) %>% count
# A tibble: 24 x 2
# Groups:   plate [24]
   plate     n
    
 1 a         6
 2 b         6
 3 c         6
 4 d         6
 5 e         6
 6 f         6
 7 g         6
 8 h         6
 9 i         6
10 j         6
#  with 14 more rows
#  Use `print(n = ...)` to see more rows
…
